Vessel Flag ID Analysis
…
Full Dataset Mismatch

# Investigate matching flags vs. non-matching flags
flag_match <- flag_data %>%
  # Fill `top_visit` NA values with `flag` values (**assumption**)
  mutate(top_visited_country_iso3 = ifelse(is.na(top_visited_country_iso3), flag, top_visited_country_iso3)) %>%
  mutate(match = case_when(flag == top_visited_country_iso3 ~ TRUE,
                           flag != top_visited_country_iso3 ~ FALSE))

# Backfill `flag` NA values with `top_visit`?
flag_match %>%
  filter(is.na(flag))

# A tibble: 159,402 × 6
       ssvid flag  top_visited_country_iso3  year emissions_co2_mt match
       <dbl> <chr> <chr>                    <dbl>            <dbl> <lgl>
 1 901401535 <NA>  CHN                       2015           81.9   NA   
 2   9106217 <NA>  THA                       2015         2143.    NA   
 3 200005060 <NA>  TWN                       2015           99.9   NA   
 4 900007278 <NA>  CHN                       2015            0.755 NA   
 5 800003788 <NA>  CHN                       2015          179.    NA   
 6 850300366 <NA>  AUS                       2015          127.    NA   
 7 200014800 <NA>  CHN                       2015            1.33  NA   
 8  90040729 <NA>  CHN                       2015           21.3   NA   
 9 550804052 <NA>  <NA>                      2015           21.4   NA   
10 900019869 <NA>  CHN                       2015          489.    NA   
# ℹ 159,392 more rows
…
# A tibble: 1 × 6
  flag  match vessels   emissions total_emissions percent_emissions_leaving_by…¹
  <chr> <lgl>   <int>       <dbl>           <dbl>                          <dbl>
1 PAN   FALSE   69639 1168683684.     1206570122.                           96.9
# ℹ abbreviated name: ¹​percent_emissions_leaving_by_flag

Overestimating Emissions

overestimation_emissions %>%
  arrange(desc(emissions))

# A tibble: 235 × 6
   flag  match vessels   emissions total_emissions percent_emissions_leaving_b…¹
   <chr> <lgl>   <int>       <dbl>           <dbl>                         <dbl>
 1 PAN   FALSE   69639 1168683684.     1206570122.                          96.9
 2 LBR   FALSE   39942  863413585.      864314868.                          99.9
 3 MHL   FALSE   44049  803748642.      804641557.                          99.9
 4 HKG   FALSE   28398  618572081.      624671969.                          99  
 5 SGP   FALSE   31314  534692927.      563593064.                          94.9
 6 MLT   FALSE   32344  420033874.      424942851.                          98.8
 7 DEU   FALSE   63257  340819857.      398070016.                          85.6
 8 BHS   FALSE   13521  304229055.      307567222.                          98.9
 9 GRC   FALSE    5630  161422244.      193952596.                          83.2
10 CYP   FALSE   10423  134408859.      136205494.                          98.7
# ℹ 225 more rows
# ℹ abbreviated name: ¹​percent_emissions_leaving_by_flag
…
# A tibble: 1 × 6
  flag  match vessels   emissions total_emissions percent_emissions_coming_by_…¹
  <chr> <lgl>   <int>       <dbl>           <dbl>                          <dbl>
1 CHN   FALSE  105392 2156325504.     2873213170.                             75
# ℹ abbreviated name: ¹​percent_emissions_coming_by_flag

Underestimating Emissions

underestimation_emissions %>%
  arrange(desc(emissions))

# A tibble: 200 × 6
   flag  match vessels   emissions total_emissions percent_emissions_coming_by…¹
   <chr> <lgl>   <int>       <dbl>           <dbl>                         <dbl>
 1 CHN   FALSE  105392 2156325504.     2873213170.                          75  
 2 USA   FALSE   51993  999487057.     1263414706.                          79.1
 3 JPN   FALSE   16062  318498208.      576401931.                          55.3
 4 ARE   FALSE   30651  310120554.      319120513.                          97.2
 5 BRA   FALSE   15906  304117467.      331487795.                          91.7
 6 AUS   FALSE   15157  274413688.      329806075.                          83.2
 7 MYS   FALSE   18233  202950236.      232364455.                          87.3
 8 TUR   FALSE   24058  168664969.      246145472.                          68.5
 9 IND   FALSE   10407  151911581.      194510391.                          78.1
10 KOR   FALSE    8169  147782188.      248005266.                          59.6
# ℹ 190 more rows
# ℹ abbreviated name: ¹​percent_emissions_coming_by_flag
…
